^C:\USERS\JAMES\DESKTOP\IBM EXTREME BLUE EXERCISE 1\RECIPES\RECIPES\DEBUG\MAIN.OBJ|C:\USERS\JAMES\DESKTOP\IBM EXTREME BLUE EXERCISE 1\RECIPES\RECIPES\DEBUG\RECIPE.OBJ
/OUT:"C:\USERS\JAMES\DESKTOP\IBM EXTREME BLUE EXERCISE 1\RECIPES\DEBUG\RECIPES.EXE" /INCREMENTAL /NOLOGO KERNEL32.LIB USER32.LIB GDI32.LIB WINSPOOL.LIB COMDLG32.LIB ADVAPI32.LIB SHELL32.LIB OLE32.LIB OLEAUT32.LIB UUID.LIB ODBC32.LIB ODBCCP32.LIB /MANIFEST /MANIFESTUAC:"level='asInvoker' uiAccess='false'" /manifest:embed /Debug /PDB:"C:\USERS\JAMES\DESKTOP\IBM EXTREME BLUE EXERCISE 1\RECIPES\DEBUG\RECIPES.PDB" /TLBID:1 /DYNAMICBASE /NXCOMPAT /IMPLIB:"C:\USERS\JAMES\DESKTOP\IBM EXTREME BLUE EXERCISE 1\RECIPES\DEBUG\RECIPES.LIB" /MACHINE:X86 DEBUG\MAIN.OBJDEBUG\RECIPE.OBJ
^C:\USERS\JAMES\DESKTOP\IBM EXTREME BLUE EXERCISE 1\EXERCISE_2\RECIPES\DEBUG\MAIN.OBJ|C:\USERS\JAMES\DESKTOP\IBM EXTREME BLUE EXERCISE 1\EXERCISE_2\RECIPES\DEBUG\RECIPE.OBJ
/OUT:"C:\USERS\JAMES\DESKTOP\IBM EXTREME BLUE EXERCISE 1\EXERCISE_2\DEBUG\RECIPES.EXE" /INCREMENTAL /NOLOGO KERNEL32.LIB USER32.LIB GDI32.LIB WINSPOOL.LIB COMDLG32.LIB ADVAPI32.LIB SHELL32.LIB OLE32.LIB OLEAUT32.LIB UUID.LIB ODBC32.LIB ODBCCP32.LIB /MANIFEST /MANIFESTUAC:"level='asInvoker' uiAccess='false'" /manifest:embed /Debug /PDB:"C:\USERS\JAMES\DESKTOP\IBM EXTREME BLUE EXERCISE 1\EXERCISE_2\DEBUG\RECIPES.PDB" /TLBID:1 /DYNAMICBASE /NXCOMPAT /IMPLIB:"C:\USERS\JAMES\DESKTOP\IBM EXTREME BLUE EXERCISE 1\EXERCISE_2\DEBUG\RECIPES.LIB" /MACHINE:X86 DEBUG\MAIN.OBJDEBUG\RECIPE.OBJ
